<define-tag pagetitle>DLA-2980-1 zabbix</define-tag>
<define-tag report_date>2022-4-12</define-tag>
<define-tag secrefs>CVE-2022-24349 CVE-2022-24917 CVE-2022-24919</define-tag>
<define-tag packages>zabbix</define-tag>
<define-tag isvulnerable>yes</define-tag>
<define-tag fixed>yes</define-tag>
<define-tag fixed-section>no</define-tag>

#use wml::debian::security

