<define-tag pagetitle>DLA-2973-1 minidlna</define-tag>
<define-tag report_date>2022-4-9</define-tag>
<define-tag secrefs>CVE-2022-26505</define-tag>
<define-tag packages>minidlna</define-tag>
<define-tag isvulnerable>yes</define-tag>
<define-tag fixed>yes</define-tag>
<define-tag fixed-section>no</define-tag>

#use wml::debian::security

