<define-tag pagetitle>DLA-2992-1 openvpn</define-tag>
<define-tag report_date>2022-05-03</define-tag>
<define-tag secrefs>CVE-2017-12166 CVE-2020-11810 CVE-2020-15078 CVE-2022-0547</define-tag>
<define-tag packages>openvpn</define-tag>
<define-tag isvulnerable>yes</define-tag>
<define-tag fixed>yes</define-tag>
<define-tag fixed-section>no</define-tag>

#use wml::debian::security

