<define-tag pagetitle>DLA-2993-1 libz-mingw-w64</define-tag>
<define-tag report_date>2022-05-04</define-tag>
<define-tag secrefs>CVE-2018-25032</define-tag>
<define-tag packages>libz-mingw-w64</define-tag>
<define-tag isvulnerable>yes</define-tag>
<define-tag fixed>yes</define-tag>
<define-tag fixed-section>no</define-tag>

#use wml::debian::security

