<define-tag pagetitle>DLA-2966-1 libgc</define-tag>
<define-tag report_date>2022-3-30</define-tag>
<define-tag secrefs>CVE-2016-9427</define-tag>
<define-tag packages>libgc</define-tag>
<define-tag isvulnerable>yes</define-tag>
<define-tag fixed>yes</define-tag>
<define-tag fixed-section>no</define-tag>

#use wml::debian::security

