<define-tag pagetitle>DLA-2920-1 varnish</define-tag>
<define-tag report_date>2022-2-14</define-tag>
<define-tag secrefs>CVE-2022-23959 Bug#1004433</define-tag>
<define-tag packages>varnish</define-tag>
<define-tag isvulnerable>yes</define-tag>
<define-tag fixed>yes</define-tag>
<define-tag fixed-section>no</define-tag>

#use wml::debian::security

