<define-tag pagetitle>DSA-4962-1 ledgersmb</define-tag>
<define-tag report_date>2021-8-23</define-tag>
<define-tag secrefs>CVE-2021-3731 CVE-2021-3693 CVE-2021-3694</define-tag>
<define-tag packages>ledgersmb</define-tag>
<define-tag isvulnerable>yes</define-tag>
<define-tag fixed>yes</define-tag>
<define-tag fixed-section>no</define-tag>

#use wml::debian::security



</dl>
