<define-tag pagetitle>DSA-4927-1 thunderbird</define-tag>
<define-tag report_date>2021-6-05</define-tag>
<define-tag secrefs>CVE-2021-29956 CVE-2021-29957 CVE-2021-29967</define-tag>
<define-tag packages>thunderbird</define-tag>
<define-tag isvulnerable>yes</define-tag>
<define-tag fixed>yes</define-tag>
<define-tag fixed-section>no</define-tag>

#use wml::debian::security



</dl>
