<define-tag pagetitle>DSA-4914-1 graphviz</define-tag>
<define-tag report_date>2021-5-12</define-tag>
<define-tag secrefs>CVE-2020-18032 Bug#988000</define-tag>
<define-tag packages>graphviz</define-tag>
<define-tag isvulnerable>yes</define-tag>
<define-tag fixed>yes</define-tag>
<define-tag fixed-section>no</define-tag>

#use wml::debian::security



</dl>
