<define-tag pagetitle>DSA-4848-1 golang-1.11</define-tag>
<define-tag report_date>2021-2-08</define-tag>
<define-tag secrefs>CVE-2020-7919 CVE-2020-15586 CVE-2020-16845 CVE-2021-3114</define-tag>
<define-tag packages>golang-1.11</define-tag>
<define-tag isvulnerable>yes</define-tag>
<define-tag fixed>yes</define-tag>
<define-tag fixed-section>no</define-tag>

#use wml::debian::security



</dl>
