<define-tag pagetitle>DSA-4672-1 trafficserver</define-tag>
<define-tag report_date>2020-5-01</define-tag>
<define-tag secrefs>CVE-2019-17559 CVE-2019-17565 CVE-2020-1944 CVE-2020-9481</define-tag>
<define-tag packages>trafficserver</define-tag>
<define-tag isvulnerable>yes</define-tag>
<define-tag fixed>yes</define-tag>
<define-tag fixed-section>no</define-tag>

#use wml::debian::security



</dl>
