<define-tag pagetitle>DSA-4690-1 dovecot</define-tag>
<define-tag report_date>2020-5-20</define-tag>
<define-tag secrefs>CVE-2020-10957 CVE-2020-10958 CVE-2020-10967 Bug#960963</define-tag>
<define-tag packages>dovecot</define-tag>
<define-tag isvulnerable>yes</define-tag>
<define-tag fixed>yes</define-tag>
<define-tag fixed-section>no</define-tag>

#use wml::debian::security



</dl>
