<define-tag pagetitle>DLA-2696-1 libjdom2-java</define-tag>
<define-tag report_date>2021-06-29</define-tag>
<define-tag secrefs>CVE-2021-33813</define-tag>
<define-tag packages>libjdom2-java</define-tag>
<define-tag isvulnerable>yes</define-tag>
<define-tag fixed>yes</define-tag>
<define-tag fixed-section>no</define-tag>

#use wml::debian::security
