<define-tag pagetitle>DLA-2766-1 openssl</define-tag>
<define-tag report_date>2021-9-26</define-tag>
<define-tag secrefs>CVE-2021-3712</define-tag>
<define-tag packages>openssl</define-tag>
<define-tag isvulnerable>yes</define-tag>
<define-tag fixed>yes</define-tag>
<define-tag fixed-section>no</define-tag>

#use wml::debian::security

