<define-tag pagetitle>DLA-2805-1 libmspack</define-tag>
<define-tag report_date>2021-10-31</define-tag>
<define-tag secrefs>CVE-2019-1010305</define-tag>
<define-tag packages>libmspack</define-tag>
<define-tag isvulnerable>yes</define-tag>
<define-tag fixed>yes</define-tag>
<define-tag fixed-section>no</define-tag>

#use wml::debian::security

