<define-tag pagetitle>DLA-2860-1 paramiko</define-tag>
<define-tag report_date>2021-12-28</define-tag>
<define-tag secrefs>CVE-2018-7750 CVE-2018-1000805 Bug#892859 Bug#910760</define-tag>
<define-tag packages>paramiko</define-tag>
<define-tag isvulnerable>yes</define-tag>
<define-tag fixed>yes</define-tag>
<define-tag fixed-section>no</define-tag>

#use wml::debian::security

