<define-tag pagetitle>DLA-2566-1 libbsd</define-tag>
<define-tag report_date>2021-2-18</define-tag>
<define-tag secrefs>CVE-2019-20367</define-tag>
<define-tag packages>libbsd</define-tag>
<define-tag isvulnerable>yes</define-tag>
<define-tag fixed>yes</define-tag>
<define-tag fixed-section>no</define-tag>

#use wml::debian::security

