<define-tag pagetitle>DLA-2726-1 shiro</define-tag>
<define-tag report_date>2021-08-02</define-tag>
<define-tag secrefs>CVE-2020-13933 CVE-2020-17510 Bug#968753</define-tag>
<define-tag packages>shiro</define-tag>
<define-tag isvulnerable>yes</define-tag>
<define-tag fixed>yes</define-tag>
<define-tag fixed-section>no</define-tag>

#use wml::debian::security

