<define-tag pagetitle>DLA-0010-1 php5</define-tag>
<define-tag report_date>2014-6-27</define-tag>
<define-tag secrefs>CVE-2014-4049</define-tag>
<define-tag packages>php5</define-tag>
<define-tag isvulnerable>yes</define-tag>
<define-tag fixed>yes</define-tag>
<define-tag fixed-section>no</define-tag>

#use wml::debian::security

