<define-tag pagetitle>DLA-1036-1 gsoap</define-tag>
<define-tag report_date>2017-7-24</define-tag>
<define-tag secrefs>CVE-2017-9765</define-tag>
<define-tag packages>gsoap</define-tag>
<define-tag isvulnerable>yes</define-tag>
<define-tag fixed>yes</define-tag>
<define-tag fixed-section>no</define-tag>

#use wml::debian::security

