<define-tag pagetitle>DLA-818-1 php5</define-tag>
<define-tag report_date>2017-2-7</define-tag>
<define-tag secrefs>CVE-2016-2554 CVE-2016-3141 CVE-2016-3142 CVE-2016-4342 CVE-2016-9934 CVE-2016-9935 CVE-2016-10158 CVE-2016-10159 CVE-2016-10160 CVE-2016-10161</define-tag>
<define-tag packages>php5</define-tag>
<define-tag isvulnerable>yes</define-tag>
<define-tag fixed>yes</define-tag>
<define-tag fixed-section>no</define-tag>

#use wml::debian::security

