<define-tag pagetitle>DLA-2303-1 libssh</define-tag>
<define-tag report_date>2020-8-1</define-tag>
<define-tag secrefs>CVE-2020-16135</define-tag>
<define-tag packages>libssh</define-tag>
<define-tag isvulnerable>yes</define-tag>
<define-tag fixed>yes</define-tag>
<define-tag fixed-section>no</define-tag>

#use wml::debian::security

