<define-tag pagetitle>DLA-2241-1 linux</define-tag>
<define-tag report_date>2020-06-09</define-tag>
<define-tag secrefs>CVE-2015-8839 CVE-2018-14610 CVE-2018-14611 CVE-2018-14612 CVE-2018-14613 CVE-2019-5108 CVE-2019-19319 CVE-2019-19447 CVE-2019-19768 CVE-2019-20636 CVE-2020-0009 CVE-2020-0543 CVE-2020-1749 CVE-2020-2732 CVE-2020-8647 CVE-2020-8648 CVE-2020-8649 CVE-2020-9383 CVE-2020-10690 CVE-2020-10751 CVE-2020-10942 CVE-2020-11494 CVE-2020-11565 CVE-2020-11608 CVE-2020-11609 CVE-2020-11668 CVE-2020-12114 CVE-2020-12464 CVE-2020-12652 CVE-2020-12653 CVE-2020-12654 CVE-2020-12769 CVE-2020-12770 CVE-2020-12826 CVE-2020-13143</define-tag>
<define-tag packages>linux</define-tag>
<define-tag isvulnerable>yes</define-tag>
<define-tag fixed>yes</define-tag>
<define-tag fixed-section>no</define-tag>

#use wml::debian::security

