<define-tag pagetitle>DLA-2154-1 phpmyadmin</define-tag>
<define-tag report_date>2020-03-22</define-tag>
<define-tag secrefs>CVE-2020-10802 CVE-2020-10803 Bug#954665 Bug#954666</define-tag>
<define-tag packages>phpmyadmin</define-tag>
<define-tag isvulnerable>yes</define-tag>
<define-tag fixed>yes</define-tag>
<define-tag fixed-section>no</define-tag>

#use wml::debian::security

