<define-tag pagetitle>DLA-2142-1 slirp</define-tag>
<define-tag report_date>2020-03-13</define-tag>
<define-tag secrefs>CVE-2020-8608</define-tag>
<define-tag packages>slirp</define-tag>
<define-tag isvulnerable>yes</define-tag>
<define-tag fixed>yes</define-tag>
<define-tag fixed-section>no</define-tag>

#use wml::debian::security
