<define-tag pagetitle>DLA-2279-1 tomcat8</define-tag>
<define-tag report_date>2020-7-12</define-tag>
<define-tag secrefs>CVE-2020-9484 CVE-2020-11996 Bug#961209</define-tag>
<define-tag packages>tomcat8</define-tag>
<define-tag isvulnerable>yes</define-tag>
<define-tag fixed>yes</define-tag>
<define-tag fixed-section>no</define-tag>

#use wml::debian::security

