<define-tag pagetitle>DLA-2268-2 mutt</define-tag>
<define-tag report_date>2020-06-30</define-tag>
<define-tag secrefs>CVE-2020-14093 CVE-2020-14954</define-tag>
<define-tag packages>mutt</define-tag>
<define-tag isvulnerable>yes</define-tag>
<define-tag fixed>yes</define-tag>
<define-tag fixed-section>no</define-tag>

#use wml::debian::security

