<define-tag pagetitle>DLA-2379-3 mediawiki</define-tag>
<define-tag report_date>2020-11-21</define-tag>
<define-tag packages>mediawiki</define-tag>
<define-tag isvulnerable>yes</define-tag>
<define-tag fixed>yes</define-tag>
<define-tag fixed-section>no</define-tag>

#use wml::debian::security

