<define-tag pagetitle>DLA-2158-1 ruby2.1</define-tag>
<define-tag report_date>2020-03-25</define-tag>
<define-tag secrefs>CVE-2016-2338</define-tag>
<define-tag packages>ruby2.1</define-tag>
<define-tag isvulnerable>yes</define-tag>
<define-tag fixed>yes</define-tag>
<define-tag fixed-section>no</define-tag>

#use wml::debian::security

