<define-tag pagetitle>DLA-2359-1 xorg-server</define-tag>
<define-tag report_date>2020-8-30</define-tag>
<define-tag secrefs>CVE-2020-14345 CVE-2020-14346 CVE-2020-14347 CVE-2020-14361 CVE-2020-14362</define-tag>
<define-tag packages>xorg-server</define-tag>
<define-tag isvulnerable>yes</define-tag>
<define-tag fixed>yes</define-tag>
<define-tag fixed-section>no</define-tag>

#use wml::debian::security

