<define-tag pagetitle>DLA-1297-1 freexl</define-tag>
<define-tag report_date>2018-3-1</define-tag>
<define-tag secrefs>CVE-2018-7435 CVE-2018-7436 CVE-2018-7437 CVE-2018-7438 CVE-2018-7439</define-tag>
<define-tag packages>freexl</define-tag>
<define-tag isvulnerable>yes</define-tag>
<define-tag fixed>yes</define-tag>
<define-tag fixed-section>no</define-tag>

#use wml::debian::security

