<define-tag pagetitle>DLA-1605-1 firefox-esr</define-tag>
<define-tag report_date>2018-12-13</define-tag>
<define-tag secrefs>CVE-2018-12405 CVE-2018-17466 CVE-2018-18492 CVE-2018-18493 CVE-2018-18494 CVE-2018-18498</define-tag>
<define-tag packages>firefox-esr</define-tag>
<define-tag isvulnerable>yes</define-tag>
<define-tag fixed>yes</define-tag>
<define-tag fixed-section>no</define-tag>

#use wml::debian::security

