<define-tag pagetitle>DLA-1525-1 mosquitto</define-tag>
<define-tag report_date>2018-9-28</define-tag>
<define-tag secrefs>CVE-2017-7653 CVE-2017-7654 CVE-2017-9868</define-tag>
<define-tag packages>mosquitto</define-tag>
<define-tag isvulnerable>yes</define-tag>
<define-tag fixed>yes</define-tag>
<define-tag fixed-section>no</define-tag>

#use wml::debian::security

