<define-tag pagetitle>DLA-1434-1 linux-base</define-tag>
<define-tag report_date>2018-7-20</define-tag>
<define-tag secrefs>Bug#702482 Bug#761614</define-tag>
<define-tag packages>linux-base</define-tag>
<define-tag isvulnerable>yes</define-tag>
<define-tag fixed>yes</define-tag>
<define-tag fixed-section>no</define-tag>

#use wml::debian::security

