<define-tag pagetitle>DLA-1380-1 libmad</define-tag>
<define-tag report_date>2018-5-18</define-tag>
<define-tag secrefs>CVE-2017-8372 CVE-2017-8373 CVE-2017-8374</define-tag>
<define-tag packages>libmad</define-tag>
<define-tag isvulnerable>yes</define-tag>
<define-tag fixed>yes</define-tag>
<define-tag fixed-section>no</define-tag>

#use wml::debian::security

