<define-tag pagetitle>DSA-4445-1 drupal7</define-tag>
<define-tag report_date>2019-5-14</define-tag>
<define-tag secrefs>CVE-2019-11831</define-tag>
<define-tag packages>drupal7</define-tag>
<define-tag isvulnerable>yes</define-tag>
<define-tag fixed>yes</define-tag>
<define-tag fixed-section>no</define-tag>

#use wml::debian::security



</dl>
