<define-tag pagetitle>DSA-4537-1 file-roller</define-tag>
<define-tag report_date>2019-9-28</define-tag>
<define-tag secrefs>CVE-2019-16680</define-tag>
<define-tag packages>file-roller</define-tag>
<define-tag isvulnerable>yes</define-tag>
<define-tag fixed>yes</define-tag>
<define-tag fixed-section>no</define-tag>

#use wml::debian::security



</dl>
