<define-tag pagetitle>DSA-4514-1 varnish</define-tag>
<define-tag report_date>2019-9-04</define-tag>
<define-tag secrefs>CVE-2019-15892</define-tag>
<define-tag packages>varnish</define-tag>
<define-tag isvulnerable>yes</define-tag>
<define-tag fixed>yes</define-tag>
<define-tag fixed-section>no</define-tag>

#use wml::debian::security



</dl>
