<define-tag pagetitle>DLA-1777-1 jquery</define-tag>
<define-tag report_date>2019-05-07</define-tag>
<define-tag secrefs>CVE-2019-11358</define-tag>
<define-tag packages>jquery</define-tag>
<define-tag isvulnerable>yes</define-tag>
<define-tag fixed>yes</define-tag>
<define-tag fixed-section>no</define-tag>

#use wml::debian::security

