<define-tag pagetitle>DLA-2049-1 imagemagick</define-tag>
<define-tag report_date>2019-12-29</define-tag>
<define-tag secrefs>CVE-2019-19948 CVE-2019-19949 Bug#947309 Bug#947308</define-tag>
<define-tag packages>imagemagick</define-tag>
<define-tag isvulnerable>yes</define-tag>
<define-tag fixed>yes</define-tag>
<define-tag fixed-section>no</define-tag>

#use wml::debian::security

