<define-tag pagetitle>DLA-492-1 pdns</define-tag>
<define-tag report_date>2016-5-29</define-tag>
<define-tag secrefs>CVE-2014-7210</define-tag>
<define-tag packages>pdns</define-tag>
<define-tag isvulnerable>yes</define-tag>
<define-tag fixed>yes</define-tag>
<define-tag fixed-section>no</define-tag>

#use wml::debian::security

