<define-tag pagetitle>DLA-553-1 apache2</define-tag>
<define-tag report_date>2016-7-20</define-tag>
<define-tag secrefs>CVE-2016-5387</define-tag>
<define-tag packages>apache2</define-tag>
<define-tag isvulnerable>yes</define-tag>
<define-tag fixed>yes</define-tag>
<define-tag fixed-section>no</define-tag>

#use wml::debian::security

