<define-tag pagetitle>DLA-746-2 tomcat6</define-tag>
<define-tag report_date>2016-12-17</define-tag>
<define-tag secrefs>Bug#848492</define-tag>
<define-tag packages>tomcat6</define-tag>
<define-tag isvulnerable>yes</define-tag>
<define-tag fixed>yes</define-tag>
<define-tag fixed-section>no</define-tag>

#use wml::debian::security

