<define-tag pagetitle>DLA-489-1 ruby-mail</define-tag>
<define-tag report_date>2016-5-25</define-tag>
<define-tag secrefs>N/A Bug#N/A</define-tag>
<define-tag packages>ruby-mail</define-tag>
<define-tag isvulnerable>yes</define-tag>
<define-tag fixed>yes</define-tag>
<define-tag fixed-section>no</define-tag>

#use wml::debian::security

